%YAML 1.1
%TAG !u! tag:unity3d.com,2011:
--- !u!21 &2100000
Material:
  serializedVersion: 6
  m_ObjectHideFlags: 0
  m_CorrespondingSourceObject: {fileID: 0}
  m_PrefabInstance: {fileID: 0}
  m_PrefabAsset: {fileID: 0}
  m_Name: StylizedWater
  m_Shader: {fileID: 4800000, guid: 4a91c9577c91733478297518e0cb57ed, type: 3}
  m_ShaderKeywords: _SECONDARYFOAMALWAYSVISIBLE_ON _SHADOWS_ON
  m_LightmapFlags: 0
  m_EnableInstancingVariants: 0
  m_DoubleSidedGI: 0
  m_CustomRenderQueue: -1
  stringTagMap: {}
  disabledShaderPasses: []
  m_SavedProperties:
    serializedVersion: 3
    m_TexEnvs:
    - _DistortionTexture:
        m_Texture: {fileID: 2800000, guid: a67d2228caf588945b19a42fbd3c3967, type: 3}
        m_Scale: {x: 1, y: 1}
        m_Offset: {x: 0, y: 0}
    - _FoamTexture:
        m_Texture: {fileID: 2800000, guid: a24ddeee41b659a42b3e031e47a80ae2, type: 3}
        m_Scale: {x: 1, y: 1}
        m_Offset: {x: 0, y: 0}
    - _ReflectionTex:
        m_Texture: {fileID: 0}
        m_Scale: {x: 1, y: 1}
        m_Offset: {x: 0, y: 0}
    - _WaterDistortionTex:
        m_Texture: {fileID: 2800000, guid: a67d2228caf588945b19a42fbd3c3967, type: 3}
        m_Scale: {x: 1, y: 1}
        m_Offset: {x: 0, y: 0}
    - _node_2516:
        m_Texture: {fileID: 0}
        m_Scale: {x: 1, y: 1}
        m_Offset: {x: 0, y: 0}
    - _node_5673:
        m_Texture: {fileID: 0}
        m_Scale: {x: 1, y: 1}
        m_Offset: {x: 0, y: 0}
    m_Floats:
    - _Cutoff: 0.5
    - _FresnelExp: 0
    - _GradientPosition1: 7.4418607
    - _GradientPosition2: 14.576528
    - _LightColorIntensity: 1
    - _MainFoamIntensity: 7
    - _MainFoamOpacity: 0.25
    - _MainFoamScale: 80
    - _MainFoamSpeed: 0.2
    - _Opacity: 0.778
    - _OpacityDepth: 2.9
    - _RealTimeReflection: 1
    - _ReflectionsIntensity: 1.33
    - _RefractionIntensity: 1.71
    - _Roughness: 0.316
    - _SecondaryFoamAlwaysVisible: 0
    - _SecondaryFoamIntensity: 3.8
    - _SecondaryFoamOpacity: 0.336
    - _SecondaryFoamScale: 57.01
    - _ShadowIntensity: 1
    - _Shadows: 1
    - _ShadowsIntensity: 1
    - _SpecularIntensity: 0.819
    - _TurbulenceDistortionIntesity: 0.73
    - _TurbulenceScale: 15.53
    - _VertexOffset: 0
    - _WaveDistortionIntensity: 0.59
    - _WavesAmplitude: 3.74
    - _WavesDirection: 77
    - _WavesIntensity: 1.97
    - _WavesSpeed: 1
    m_Colors:
    - _DepthGradient1: {r: 0.4156863, g: 0.6392157, b: 0.9058824, a: 1}
    - _DepthGradient2: {r: 0, g: 0.15466529, b: 0.36764705, a: 1}
    - _DepthGradient3: {r: 0.017409164, g: 0.04984338, b: 0.16911763, a: 1}
    - _FoamColor: {r: 1, g: 1, b: 1, a: 0}
    - _FresnelColor: {r: 0, g: 0.37931037, b: 1, a: 0}
    - _ShadowColor: {r: 0.009191178, g: 0.033871744, b: 0.125, a: 0}
