%YAML 1.1
%TAG !u! tag:unity3d.com,2011:
--- !u!114 &11400000
MonoBehaviour:
  m_ObjectHideFlags: 0
  m_CorrespondingSourceObject: {fileID: 0}
  m_PrefabInstance: {fileID: 0}
  m_PrefabAsset: {fileID: 0}
  m_GameObject: {fileID: 0}
  m_Enabled: 1
  m_EditorHideFlags: 0
  m_Script: {fileID: 11500000, guid: 0b7d6d5247ac6e54c8f5cdd9a31ae9e1, type: 3}
  m_Name: Thunder Strike - Lightning Dragon
  m_EditorClassIdentifier: 
  cardName: Thunder Strike - Lightning Dragon
  IDNumber: 
  cardType: 0
  cardSubtype: 1
  rarity: 3
  image: {fileID: 21300000, guid: 52acda2186ad4ae4aad635ddb0f62213, type: 3}
  imageRaw: {fileID: 21300000, guid: 5fab2d4e8569df242922c34d8bb7551a, type: 3}
  ability:
    text: 'Condition: Once per turn, when this card declares an attack.

      Resolution:
      This card gains STR equal to half the STR of the attack target.'
    category: 0
    type: 0
    cost: 0
    lifeCost: 0
    soulEnergyCost: 0
    discardNumber: 0
    offeringNumber: 0
    shuffleHandNumber: 0
    shuffleFieldNumber: 0
    numberToDraw: 0
    numberToSummon: 0
    searchType: 0
    searchParameters: []
    soulEnergyModifier: 0
    strModifier: 0
    staModifier: 0
    summonLimitModifier: 0
    lifeModifier: 0
  race: 7
  soulEnergy: 8
  Strength: 100
  Stamina: 150
