%YAML 1.1
%TAG !u! tag:unity3d.com,2011:
--- !u!114 &11400000
MonoBehaviour:
  m_ObjectHideFlags: 0
  m_CorrespondingSourceObject: {fileID: 0}
  m_PrefabInstance: {fileID: 0}
  m_PrefabAsset: {fileID: 0}
  m_GameObject: {fileID: 0}
  m_Enabled: 1
  m_EditorHideFlags: 0
  m_Script: {fileID: 11500000, guid: dc2182c5ef0d8b54589c0a6eaa45c2f7, type: 3}
  m_Name: Pack Filler 7
  m_EditorClassIdentifier: 
  cardName: Pack Filler
  cardType: 0
  monsterType: 0
  cardLevel: 1
  cardATK: 0
  cardDEF: 0
  cardEffect: 
  cardSprite: {fileID: 21300000, guid: 8ad600863b2b8664e83d8f0c5425cb79, type: 3}
  cardRarity: 0
  cardQuantity: 0
  battledThisTurn: 0
  effectType: 0
  numberToDraw: 0
